<?xml version="1.0" encoding="UTF-8"?>
<kml xmlns="http://earth.google.com/kml/2.0">
<Document>
  <name>Countries</name>
  <visibility>0</visibility>
  <Schema parent="Placemark" name="S_country">
    <SimpleField type="wstring" name="FIPS_CNTRY">
    </SimpleField>
    <SimpleField type="wstring" name="GMI_CNTRY">
    </SimpleField>
    <SimpleField type="wstring" name="ISO_2DIGIT">
    </SimpleField>
    <SimpleField type="wstring" name="ISO_3DIGIT">
    </SimpleField>
    <SimpleField type="wstring" name="CNTRY_NAME">
    </SimpleField>
    <SimpleField type="wstring" name="LONG_NAME">
    </SimpleField>
    <SimpleField type="wstring" name="SOVEREIGN">
    </SimpleField>
    <SimpleField type="double" name="POP_CNTRY">
    </SimpleField>
    <SimpleField type="wstring" name="CURR_TYPE">
    </SimpleField>
    <SimpleField type="wstring" name="CURR_CODE">
    </SimpleField>
    <SimpleField type="wstring" name="LANDLOCKED">
    </SimpleField>
    <SimpleField type="double" name="SQKM">
    </SimpleField>
    <SimpleField type="double" name="SQMI">
    </SimpleField>
    <SimpleField type="wstring" name="COLOR_MAP">
    </SimpleField>
  </Schema>
  <Style id="khStyle548_3">
    <LineStyle id="khLineStyle548_3">
      <color>66000000</color>
      <width>0.4000000059604645</width>
    </LineStyle>
    <PolyStyle id="khPolyStyle548_3">
      <color>66b0f1ae</color>
    </PolyStyle>
  </Style>
  <Style id="khStyle548_0">
    <LineStyle id="khLineStyle548_0">
      <color>66000000</color>
      <width>0.4000000059604645</width>
    </LineStyle>
    <PolyStyle id="khPolyStyle548_0">
      <color>66beffd3</color>
    </PolyStyle>
  </Style>
  <Style id="khStyle548_7">
    <LineStyle id="khLineStyle548_7">
      <color>66000000</color>
      <width>0.4000000059604645</width>
    </LineStyle>
    <PolyStyle id="khPolyStyle548_7">
      <color>66e8beff</color>
    </PolyStyle>
  </Style>
  <Style id="khStyle548_6">
    <LineStyle id="khLineStyle548_6">
      <color>66000000</color>
      <width>0.4000000059604645</width>
    </LineStyle>
    <PolyStyle id="khPolyStyle548_6">
      <color>66bebeff</color>
    </PolyStyle>
  </Style>
  <Style id="khStyle548_5">
    <LineStyle id="khLineStyle548_5">
      <color>66000000</color>
      <width>0.4000000059604645</width>
    </LineStyle>
    <PolyStyle id="khPolyStyle548_5">
      <color>66ffe8be</color>
    </PolyStyle>
  </Style>
  <Style id="khStyle548_4">
    <LineStyle id="khLineStyle548_4">
      <color>66000000</color>
      <width>0.4000000059604645</width>
    </LineStyle>
    <PolyStyle id="khPolyStyle548_4">
      <color>66bee4ef</color>
    </PolyStyle>
  </Style>
  <Style id="NoneIconStyle">
    <IconStyle>
      <Icon>
      </Icon>
    </IconStyle>
  </Style>
  <Style id="khStyle548_2">
    <LineStyle id="khLineStyle548_2">
      <color>66000000</color>
      <width>0.4000000059604645</width>
    </LineStyle>
    <PolyStyle id="khPolyStyle548_2">
      <color>66ffbee8</color>
    </PolyStyle>
  </Style>
  <Style id="khStyle548_1">
    <LineStyle id="khLineStyle548_1">
      <color>66000000</color>
      <width>0.4000000059604645</width>
    </LineStyle>
    <PolyStyle id="khPolyStyle548_1">
      <color>66ffe8be</color>
    </PolyStyle>
  </Style>
  <Folder>
    <name>metadata</name>
    <visibility>0</visibility>
    <Folder>
      <name>About</name>
      <visibility>0</visibility>
      <description><![CDATA[Generated by <a href="http://www.mi-perm.ru/gis/programs/kmler">KMLer</a><br>01.02.2006 20:14:42
<br>Authors: Valery Hronusov, Michael Barsky]]></description>
    </Folder>
  </Folder>
  <Folder>
    <name>Countries</name>
    <visibility>0</visibility>
	<S_country>
      <name>Brazil</name>
      <visibility>0</visibility>
      <description><![CDATA[<a href='http://www.google.com/search?q=Brazil'>Search Google</a> <BR><a href='http://maps.google.com/?ll=-10.7843065500406,-53.0972893734175&spn=0.02,0.02&t=h'>Maps Google</a> <BR>]]></description>
      <styleUrl>#khStyle548_5</styleUrl>
      <Style>
        <PolyStyle>
          <color>78ffe8be</color>
        </PolyStyle>
      </Style>
	  <Point>
        <coordinates>-53.0972893734175,-10.7843065500406,0</coordinates>
      </Point>
      <MultiGeometry>
        <Polygon>
          <outerBoundaryIs>
            <LinearRing>
              <coordinates>
-44.69501,-1.817778,0 -44.48973,-1.986667,0 -44.65493,-2.323681,0 -44.45084,-2.146389,0 -44.36056,-2.341945,0 -44.58209,-2.566806,0 -44.78639,-3.2975,0 -44.42306,-2.934445000000001,0 -44.35695,-2.526667,0 -44.03389,-2.413611,0 -44.33837,-2.780799,0 -44.19833,-2.868889,0 -43.92834,-2.548472,0 -43.44833,-2.537778,0 -43.47771,-2.382778,0 -43.3475,-2.365834,0 -42.23584,-2.837778000000001,0 -41.87083,-2.732223,0 -41.24807,-3.023554,0 -41.22278000000001,-2.880278,0 -39.99875,-2.846528,0 -38.49653,-3.724861,0 -37.17445,-4.918612,0 -35.41445,-5.218472,0 -34.79292,-7.172778,0 -34.83098,-8.009306000000001,0 -35.32751,-9.228889000000001,0 -36.38986,-10.48917,0 -37.01195,-10.92972,0 -37.05518,-10.87688,0 -37.15451,-11.09979,0 -37.27563,-11.02521,0 -37.20723,-11.21945,0 -37.37188,-11.42986,0 -37.34236,-11.1875,0 -37.65917,-12.05833,0 -38.31792,-12.93722,0 -38.53053,-13.01601,0 -38.50737,-12.72646,0 -38.69799,-12.58111,0 -38.79996,-12.80359,0 -38.73014,-12.87125,0 -39.08028,-13.53833,0 -38.96347,-13.68611,0 -39.07459,-14.14611,0 -38.9207,-13.92514,0 -39.06667,-14.65042,0 -38.87195,-15.87417,0 -39.20903,-17.16611,0 -39.13223,-17.68632,0 -39.64626,-18.23125,0 -39.78751,-19.60361,0 -40.96433,-21.27657,0 -40.97014,-21.9825,0 -41.76306,-22.34611,0 -41.98743000000001,-22.5657,0 -42.03445,-22.91917000000001,0 -43.09417,-22.95333,0 -43.07584,-22.66833,0 -43.25431,-22.7366,0 -43.14743,-22.95181,0 -43.28945,-23.01306,0 -43.99695,-23.10306,0 -43.60681,-23.01889,0 -43.76889,-22.92667000000001,0 -44.19195000000001,-23.05111,0 -44.35375,-22.92042,0 -44.67521000000001,-23.0557,0 -44.57431,-23.35368,0 -44.94389,-23.36222,0 -45.41084000000001,-23.62889,0 -45.41549,-23.82806,0 -45.89001,-23.76778,0 -46.27972,-24.02584,0 -46.38042000000001,-23.86875,0 -48.02612,-25.015,0 -47.91431000000001,-25.15236,0 -48.20820000000001,-25.46014,0 -48.13406,-25.28473,0 -48.39500000000001,-25.29611,0 -48.4807,-25.48014,0 -48.71861,-25.42472,0 -48.36181,-25.57944,0 -48.77014,-25.8841,0 -48.58112,-25.87222,0 -48.58104,-26.1757,0 -48.79333,-26.13223,0 -48.48695,-27.21347,0 -48.62056,-27.23709,0 -48.5639,-27.86444,0 -48.76181,-28.4907,0 -48.85278,-28.32028,0 -48.84251,-28.61778,0 -49.7525,-29.36972,0 -50.74945,-31.08111,0 -52.06966,-32.17195,0 -52.08674000000001,-31.82681,0 -51.86126,-31.87292,0 -51.2514,-31.47167,0 -51.15896,-31.07785000000001,0 -50.97084000000001,-31.12222,0 -50.56810000000001,-30.45755000000001,0 -50.605,-30.19403000000001,0 -50.96639,-30.40889,0 -51.27504,-30.01056,0 -51.27729,-30.79993,0 -51.37695,-30.65111,0 -51.46778,-31.06097,0 -51.96375,-31.33736,0 -52.21764,-31.74500000000001,0 -52.25472,-32.05528,0 -52.09077,-32.16438,0 -52.62862000000001,-33.11528,0 -53.3743,-33.74067,0 -53.53445000000001,-33.65695,0 -53.52105000000001,-33.14161,0 -53.09830000000001,-32.72344,0 -53.55334,-32.44611,0 -53.87542,-31.97445,0 -54.28584000000001,-31.80445,0 -54.59410000000001,-31.46091,0 -55.22875000000001,-31.24973,0 -55.58417,-30.84625,0 -56.00892,-31.07979,0 -56.00167,-30.79583,0 -56.81139,-30.10528,0 -57.07098,-30.10889,0 -57.21389,-30.29209,0 -57.608,-30.18493000000001,0 -55.89306,-28.36972,0 -55.69754,-28.40771,0 -55.74834000000001,-28.21708,0 -55.02167,-27.83389,0 -54.81361,-27.53556,0 -53.80779,-27.12917,0 -53.65001,-26.25,0 -53.86167,-25.68528,0 -54.10757000000001,-25.49639,0 -54.59892,-25.57322,0 -54.2439,-24.05361,0 -54.6257,-23.80493,0 -55.03139,-23.99445,0 -55.41209,-23.95431,0 -55.60917000000001,-22.63847000000001,0 -55.84972000000001,-22.28889,0 -56.20292,-22.27472,0 -56.39653000000001,-22.06868,0 -56.87750000000001,-22.27417,0 -57.98511000000001,-22.09183,0 -57.81459,-20.97875000000001,0 -58.15889,-20.16806,0 -57.85188000000001,-19.97551,0 -58.12112000000001,-19.74139,0 -57.70473000000001,-19.04361,0 -57.52112000000001,-18.20389,0 -57.74551,-17.59389,0 -58.39042,-17.25958,0 -58.47577,-16.67463,0 -58.32751,-16.27917,0 -60.16028,-16.26306,0 -60.22723,-15.47861,0 -60.5714,-15.0975,0 -60.2589,-15.09361,0 -60.47681,-13.80347,0 -61.03898,-13.49312,0 -61.84031,-13.53874,0 -62.11367,-13.15371,0 -62.76973,-13.00583,0 -63.0671,-12.65987,0 -64.37306,-12.46833,0 -65.00834999999999,-11.98944,0 -65.39071,-11.27472,0 -65.37694999999999,-9.703334000000002,0 -66.63049,-9.905765000000001,0 -67.70334,-10.69472,0 -68.06111000000001,-10.67639,0 -68.28091000000001,-10.97972,0 -68.62083,-11.11639,0 -69.5675,-10.95056,0 -70.63139,-11.00917,0 -70.51466000000002,-9.428001,0 -71.29639,-9.995418000000001,0 -72.14389,-10.00472,0 -72.37167,-9.49264,0 -73.2007,-9.400764000000001,0 -72.96236000000002,-8.988473000000001,0 -73.53319999999999,-8.352361999999999,0 -73.77196000000001,-7.948056,0 -73.70667,-7.776389000000001,0 -74.00458999999999,-7.554376,0 -73.93112000000001,-7.359167,0 -73.70584,-7.309237000000001,0 -73.74417,-6.876945000000001,0 -73.12390000000001,-6.447223,0 -73.22974000000001,-6.093612000000001,0 -72.85196000000001,-5.124722,0 -71.90248,-4.518188,0 -70.95626,-4.382223,0 -70.76244,-4.147708,0 -70.32014000000001,-4.139723,0 -70.19783,-4.33265,0 -69.95692,-4.236874,0 -69.37855,-1.337917,0 -69.60654,-0.5198612,0 -70.05806,-0.1575,0 -70.04473000000002,0.585,0 -69.45928000000001,0.7365972,0 -69.12782,0.6440277,0 -69.26487,1.033889,0 -69.84222,1.072222,0 -69.84610000000001,1.710455,0 -68.15306,1.724167,0 -68.1964,1.9775,0 -67.91473000000002,1.745278,0 -67.42258,2.142847,0 -67.07118,1.620407,0 -67.07529,1.1725,0 -66.87045000000001,1.220932,0 -66.31473,0.7513888,0 -65.59542999999999,0.9904166,0 -65.52167,0.6491666,0 -65.10389000000001,1.142083,0 -64.11320000000001,1.582916,0 -64.00237,1.949861,0 -63.39945,2.149513,0 -63.36542,2.42,0 -64.03403,2.471319,0 -64.19022,3.589653000000001,0 -64.78167000000001,4.286388,0 -64.59202000000001,4.127777,0 -64.12639,4.109583,0 -64.01779000000001,3.886111000000001,0 -63.33556,3.958055,0 -62.87806000000001,3.560139,0 -62.73403,3.676528,0 -62.72834000000001,4.038611,0 -62.44014,4.182673,0 -61.84889,4.160555,0 -61.31361,4.506666,0 -60.98709,4.519305,0 -60.57854,4.952638,0 -60.73037,5.204799,0 -60.11459,5.245694,0 -59.98306,5.022499,0 -60.14848000000001,4.52,0 -59.67445,4.385139000000001,0 -59.56861000000001,3.899444,0 -59.83195000000001,3.524167,0 -59.98848,2.688194,0 -59.73549000000001,2.284722,0 -59.74903,1.861389,0 -59.24396000000001,1.386528,0 -58.8107,1.186875,0 -58.51962,1.269618,0 -58.29723,1.582778,0 -58.00716,1.515694,0 -57.52806000000001,1.715833,0 -57.33195000000001,1.972222,0 -56.47063,1.944499,0 -55.90174,1.901042,0 -56.11584000000001,2.249166,0 -55.96278,2.533055,0 -55.71368,2.400139,0 -54.96945,2.550555,0 -54.60378,2.329195,0 -54.10966000000001,2.113472,0 -53.74611,2.370972,0 -52.89646,2.206805,0 -52.59445,2.473889,0 -52.34494,3.157403,0 -51.68407,4.034163,0 -51.54028,4.15361,0 -51.44778000000001,3.972500000000001,0 -51.54813000000001,4.385694,0 -51.09299,3.912847,0 -51.02361000000001,3.13,0 -50.67973000000001,2.164722,0 -50.44528,1.825833,0 -49.93208,1.70993,0 -49.89299000000001,1.324236,0 -50.11056000000001,1.213403,0 -49.9032,1.174444,0 -51.2975,-0.1913889,0 -51.69408000000001,-0.7451885,0 -51.92751,-1.334861,0 -52.70695,-1.603056,0 -52.29333000000001,-1.535,0 -52.20847,-1.692079,0 -50.85292,-0.9150001000000001,0 -50.8371,-1.339409,0 -50.66723,-1.771667,0 -50.81473,-1.898334,0 -51.3366,-1.647431,0 -51.52195,-2.046389,0 -51.44723,-2.279167,0 -51.30823,-1.76691,0 -50.99112000000001,-2.029583,0 -51.02917000000001,-2.345,0 -50.84382,-2.5075,0 -51.00625,-2.339861,0 -50.98431,-2.069167,0 -50.71646,-2.223264,0 -50.82292,-1.96,0 -50.67796000000001,-1.810444,0 -50.41639000000001,-1.952222,0 -49.28091,-1.717708,0 -49.49001,-2.565,0 -49.19056000000001,-1.898056,0 -48.97049000000001,-1.840556,0 -48.69723,-1.469167,0 -48.42722,-1.660278,0 -48.41361,-1.499444,0 -48.18896000000001,-1.46625,0 -48.49973,-1.461458,0 -48.23806,-0.8677778000000002,0 -47.74459000000001,-0.6373612,0 -47.39806,-0.8127779000000002,0 -47.4314,-0.5825001,0 -46.95973,-0.7027779,0 -46.96,-0.8984723,0 -46.82667,-0.7131945,0 -46.60111,-0.8677778000000002,0 -46.61000000000001,-1.0375,0 -46.19195000000001,-0.9575001,0 -46.25945000000001,-1.177778,0 -46.04667,-1.210278,0 -45.97570000000001,-1.0775,0 -45.86153,-1.259514,0 -45.73556,-1.18,0 -45.69618,-1.368681,0 -45.44695,-1.310833,0 -45.46223000000001,-1.545556,0 -45.32473,-1.314722,0 -45.35070000000001,-1.736806,0 -45.15876,-1.480417,0 -44.85889,-1.430625,0 -44.95139,-1.601667,0 -44.69501,-1.817778,0 
              </coordinates>
            </LinearRing>
          </outerBoundaryIs>
          <tesselate>1</tesselate>
        </Polygon>
        <Polygon>
          <outerBoundaryIs>
            <LinearRing>
              <coordinates>
-50.40472000000001,1.88,0 -50.49945000000001,2.077777,0 -50.37889,2.133333,0 -50.40472000000001,1.88,0 
              </coordinates>
            </LinearRing>
          </outerBoundaryIs>
          <tesselate>1</tesselate>
        </Polygon>
        <Polygon>
          <outerBoundaryIs>
            <LinearRing>
              <coordinates>
-50.25417,0.3419444,0 -50.30806,0.5063888,0 -50.05986,0.6430555,0 -50.25417,0.3419444,0 
              </coordinates>
            </LinearRing>
          </outerBoundaryIs>
          <tesselate>1</tesselate>
        </Polygon>
        <Polygon>
          <outerBoundaryIs>
            <LinearRing>
              <coordinates>
-50.44112,0.1711111,0 -50.53639,0.2223611,0 -50.37778,0.6183333,0 -50.31778,0.3088889,0 -50.44112,0.1711111,0 
              </coordinates>
            </LinearRing>
          </outerBoundaryIs>
          <tesselate>1</tesselate>
        </Polygon>
        <Polygon>
          <outerBoundaryIs>
            <LinearRing>
              <coordinates>
-49.89502,0,0 -50.34986000000001,0.02180555,0 -50.39194000000001,0.1897222,0 -49.70389,0.335,0 -49.64362,0.2102778,0 -49.89502,0,0 
              </coordinates>
            </LinearRing>
          </outerBoundaryIs>
          <tesselate>1</tesselate>
        </Polygon>
        <Polygon>
          <outerBoundaryIs>
            <LinearRing>
              <coordinates>
-50.43714,-8.673617e-019,0 -50.65778000000001,0.1523611,0 -50.47278000000001,0.1541666,0 -50.43714,-8.673617e-019,0 
              </coordinates>
            </LinearRing>
          </outerBoundaryIs>
          <tesselate>1</tesselate>
        </Polygon>
        <Polygon>
          <outerBoundaryIs>
            <LinearRing>
              <coordinates>
-49.39781,0,0 -49.52556,-0.1344444,0 -49.85250000000001,-0.06444445,0 -49.65098,0.0773611,0 -49.39781,0,0 
              </coordinates>
            </LinearRing>
          </outerBoundaryIs>
          <tesselate>1</tesselate>
        </Polygon>
        <Polygon>
          <outerBoundaryIs>
            <LinearRing>
              <coordinates>
-50.85778,-0.2830556,0 -51.02723,-0.2241667,0 -50.97278000000001,-0.09,0 -50.5625,-0.05416667000000001,0 -50.85778,-0.2830556,0 
              </coordinates>
            </LinearRing>
          </outerBoundaryIs>
          <tesselate>1</tesselate>
        </Polygon>
        <Polygon>
          <outerBoundaryIs>
            <LinearRing>
              <coordinates>
-50.79058,-1.202592,0 -50.78111,-1.151945,0 -50.56945,-1.101944,0 -50.79695000000001,-0.9719445000000001,0 -50.77500000000001,-0.6441667,0 -50.55743,-0.6786112,0 -50.72639000000001,-0.4977778000000001,0 -50.64667,-0.2625,0 -50.3289,-0.1002778,0 -48.41028,-0.2621274000000001,0 -48.53917,-0.9002779,0 -48.87667,-1.487778,0 -49.67250000000001,-1.776667,0 -49.75757,-1.63875,0 -49.81299,-1.814445,0 -50.05431000000001,-1.708472,0 -50.57952000000001,-1.798681,0 -50.72392000000001,-1.510142,0 -50.81431,-1.329514,0 -50.79058,-1.202592,0 
              </coordinates>
            </LinearRing>
          </outerBoundaryIs>
          <tesselate>1</tesselate>
        </Polygon>
        <Polygon>
          <outerBoundaryIs>
            <LinearRing>
              <coordinates>
-51.6428,-0.8181104,0 -51.60973,-0.733889,0 -51.59140000000001,-0.7248175,0 -51.19833000000001,-0.5302778,0 -51.27681000000001,-1.02,0 -51.90139,-1.476667,0 -51.6428,-0.8181104,0 
              </coordinates>
            </LinearRing>
          </outerBoundaryIs>
          <tesselate>1</tesselate>
        </Polygon>
        <Polygon>
          <outerBoundaryIs>
            <LinearRing>
              <coordinates>
-51.14001,-0.9622223000000001,0 -51.07028,-0.6944445,0 -50.81361,-0.5761111,0 -51.14001,-0.9622223000000001,0 
              </coordinates>
            </LinearRing>
          </outerBoundaryIs>
          <tesselate>1</tesselate>
        </Polygon>
        <Polygon>
          <outerBoundaryIs>
            <LinearRing>
              <coordinates>
-52.20084000000001,-1.646667,0 -52.17223,-1.497222,0 -51.91515,-1.520278,0 -52.20084000000001,-1.646667,0 
              </coordinates>
            </LinearRing>
          </outerBoundaryIs>
          <tesselate>1</tesselate>
        </Polygon>
        <Polygon>
          <outerBoundaryIs>
            <LinearRing>
              <coordinates>
-45.24334000000001,-23.96722,0 -45.44792,-23.9175,0 -45.32195,-23.72695,0 -45.24334000000001,-23.96722,0 
              </coordinates>
            </LinearRing>
          </outerBoundaryIs>
          <tesselate>1</tesselate>
        </Polygon>
      </MultiGeometry>
      <FIPS_CNTRY>BR</FIPS_CNTRY>
      <GMI_CNTRY>BRA</GMI_CNTRY>
      <ISO_2DIGIT>BR</ISO_2DIGIT>
      <ISO_3DIGIT>BRA</ISO_3DIGIT>
      <CNTRY_NAME>Brazil</CNTRY_NAME>
      <LONG_NAME>Brazil</LONG_NAME>
      <SOVEREIGN>Brazil</SOVEREIGN>
      <POP_CNTRY>151525400</POP_CNTRY>
      <CURR_TYPE>Cruzeiro Real</CURR_TYPE>
      <CURR_CODE>BRL</CURR_CODE>
      <LANDLOCKED>N</LANDLOCKED>
      <SQKM>8493132</SQKM>
      <SQMI>3279198.25</SQMI>
      <COLOR_MAP>6</COLOR_MAP>
    </S_country>
   <S_country>
      <name>Mexico</name>
      <visibility>0</visibility>
      <description><![CDATA[<a href='http://www.google.com/search?q=Mexico'>Search Google</a> <BR><a href='http://maps.google.com/?ll=23.9510671215291,-102.527628918614&spn=0.02,0.02&t=h'>Maps Google</a> <BR>]]></description>
      <styleUrl>#khStyle548_2</styleUrl>
      <Style>
        <PolyStyle>
          <color>78ffbee8</color>
        </PolyStyle>
      </Style>
	  <Point>
        <coordinates>-102.527628918614,23.9510671215291,0</coordinates>
      </Point>
      <MultiGeometry>
        <Polygon>
          <outerBoundaryIs>
            <LinearRing>
              <coordinates>
-97.14073999999999,25.96643,0 -97.65167000000001,24.52028,0 -97.74139000000001,22.90583000000001,0 -97.88827000000002,22.59882,0 -97.69792000000001,21.97472,0 -97.31501000000002,21.55652,0 -97.41348000000001,21.27173000000001,0 -97.37291999999999,21.54354,0 -97.74223000000001,22.0125,0 -97.17535000000001,20.68396,0 -96.44445000000002,19.855,0 -96.29529000000001,19.34111,0 -95.91139000000001,18.82528,0 -95.18223,18.7018,0 -94.46918000000001,18.14625,0 -93.58709000000002,18.42139,0 -93.12987,18.33958,0 -92.00417,18.72625,0 -91.85862,18.61569,0 -92.04195000000001,18.56,0 -91.81313000000002,18.38264,0 -91.4957,18.43555,0 -91.18619000000001,18.65007,0 -91.42861000000002,18.85177,0 -90.75389,19.32027,0 -90.67667000000002,19.76833,0 -90.45528000000002,19.97597,0 -90.33265,21.0275,0 -88.45140000000001,21.56889,0 -87.24918,21.44139,0 -87.13383,21.55722,0 -87.41077,21.52861,0 -87.07861,21.60611,0 -86.81556999999999,21.40861,0 -86.77528,21.15264,0 -87.42556,20.22278,0 -87.46906,19.84902,0 -87.7366,19.67757,0 -87.65770999999999,19.50555,0 -87.41222000000001,19.58167,0 -87.67695000000001,19.315,0 -87.48862,19.29139,0 -87.76237,18.40861,0 -87.8475,18.19083,0 -88.07333,18.49361,0 -88.03973000000001,18.86819,0 -88.2995,18.48293,0 -88.47378999999999,18.48371,0 -88.84139999999999,17.90389,0 -89.07205,17.99498,0 -89.14194999999999,17.81889,0 -90.98242000000002,17.82065,0 -90.98390000000001,17.25611,0 -91.434,17.23722,0 -90.40640000000001,16.41639,0 -90.44196000000001,16.08833,0 -91.72917,16.075,0 -92.2114,15.26222,0 -92.07069000000001,15.07729,0 -92.24678,14.55055,0 -92.77049,15.1716,0 -93.93861,16.09389,0 -94.40029,16.29555,0 -94.06505000000001,16.0415,0 -94.69125,16.19069,0 -94.57883000000001,16.31521,0 -94.79153,16.26007,0 -94.85918000000001,16.42708,0 -95.06268,16.27212,0 -94.85779000000001,16.21583,0 -96.47612,15.64361,0 -97.79279000000001,15.97208,0 -98.78223,16.55305,0 -99.68598000000002,16.70694,0 -100.91,17.2175,0 -101.9528,17.97847000000001,0 -102.1703,17.91833,0 -103.3575,18.27278,0 -103.9719,18.87722,0 -105.0225,19.37194,0 -105.6783,20.38305,0 -105.2447,20.57465,0 -105.3218,20.76548,0 -105.5362,20.79257,0 -105.2414,21.06472000000001,0 -105.1895,21.4375,0 -105.6503,21.98125,0 -105.8204,22.66402,0 -106.9157,23.86514,0 -107.7277,24.47113,0 -107.618,24.5172,0 -107.9955,24.6491,0 -107.99,24.95951000000001,0 -108.1042,24.82194,0 -108.2213,25.02944,0 -108.0425,25.07361,0 -108.3942,25.14111000000001,0 -108.7653,25.5393,0 -109.1089,25.52611,0 -108.8349,25.79361,0 -109.141,25.58305,0 -109.4375,25.82027,0 -109.2317,26.31944,0 -109.1039,26.28361,0 -109.4443,26.71555,0 -109.7539,26.69611,0 -109.949,27.09347,0 -110.5297,27.37111,0 -110.6346,27.66236,0 -110.5114,27.855,0 -111.1033,27.93694,0 -112.1619,28.97139,0 -112.2135,29.30611,0 -113.0814,30.69889,0 -113.0917,31.22972,0 -113.5897,31.33167,0 -113.9747,31.65569,0 -114.0208,31.49764,0 -114.2175,31.52222,0 -115.0172,31.95443,0 -114.7867,31.66417,0 -114.8807,31.15166,0 -114.7064,30.9275,0 -114.5453,30.00111,0 -113.6679,29.28416,0 -113.5088,28.89625,0 -113.1949,28.81382,0 -113.1159,28.48646000000001,0 -112.8632,28.41850000000001,0 -112.7531,27.8375,0 -112.3467,27.54139,0 -111.8586,26.66194000000001,0 -111.6875,26.60059,0 -111.845,26.90208,0 -111.5619,26.71965,0 -111.2997,25.78028,0 -110.6863,24.89639,0 -110.6575,24.33389,0 -110.3542,24.11583,0 -110.21,24.34819,0 -109.4075,23.46125,0 -109.4851,23.15944,0 -109.9553,22.86444,0 -110.3112,23.56069,0 -112.0875,24.75611,0 -112.1001,25.72805,0 -112.3783,26.255,0 -113.215,26.70333,0 -113.131,26.96,0 -113.2753,26.78136,0 -113.5988,26.73958,0 -114.9889,27.72111,0 -115.0206,27.84666,0 -113.985,27.70083,0 -114.3076,27.86592,0 -114.1286,28.02366,0 -114.0613,28.51757,0 -114.946,29.37389,0 -115.6967,29.77423,0 -116.0555,30.79652,0 -116.6756,31.56076,0 -116.6081,31.84451,0 -116.8432,31.99083,0 -117.1224,32.53533,0 -114.7191,32.71846,0 -114.7952,32.5005,0 -111.0458,31.33305,0 -108.2083,31.33305,0 -108.2086,31.78333,0 -106.3958,31.7475,0 -106.2099,31.47222,0 -104.8965,30.56625,0 -104.5418,29.67291,0 -103.375,29.02361000000001,0 -103.1637,28.98403,0 -102.6703,29.74277,0 -102.3018,29.88798,0 -101.405,29.77278,0 -100.6658,29.10903,0 -100.2815,28.28055000000001,0 -99.50390000000002,27.56805,0 -99.45862,27.04694,0 -99.10474000000001,26.435,0 -97.41723000000002,25.84333000000001,0 -97.14073999999999,25.96643,0 
              </coordinates>
            </LinearRing>
          </outerBoundaryIs>
          <tesselate>1</tesselate>
        </Polygon>
        <Polygon>
          <outerBoundaryIs>
            <LinearRing>
              <coordinates>
-113.1397,29.01778,0 -113.5922,29.42583,0 -113.5824,29.58597,0 -113.1397,29.01778,0 
              </coordinates>
            </LinearRing>
          </outerBoundaryIs>
          <tesselate>1</tesselate>
        </Polygon>
        <Polygon>
          <outerBoundaryIs>
            <LinearRing>
              <coordinates>
-112.2964,28.75639,0 -112.5636,28.88111,0 -112.4569,29.18611,0 -112.29,29.2375,0 -112.2964,28.75639,0 
              </coordinates>
            </LinearRing>
          </outerBoundaryIs>
          <tesselate>1</tesselate>
        </Polygon>
        <Polygon>
          <outerBoundaryIs>
            <LinearRing>
              <coordinates>
-115.1795,28.02472,0 -115.3243,28.13972,0 -115.2408,28.37055000000001,0 -115.1795,28.02472,0 
              </coordinates>
            </LinearRing>
          </outerBoundaryIs>
          <tesselate>1</tesselate>
        </Polygon>
        <Polygon>
          <outerBoundaryIs>
            <LinearRing>
              <coordinates>
-86.99335000000001,20.25555,0 -86.93557,20.54305,0 -86.73862,20.58895,0 -86.99335000000001,20.25555,0 
              </coordinates>
            </LinearRing>
          </outerBoundaryIs>
          <tesselate>1</tesselate>
        </Polygon>
      </MultiGeometry>
      <FIPS_CNTRY>MX</FIPS_CNTRY>
      <GMI_CNTRY>MEX</GMI_CNTRY>
      <ISO_2DIGIT>MX</ISO_2DIGIT>
      <ISO_3DIGIT>MEX</ISO_3DIGIT>
      <CNTRY_NAME>Mexico</CNTRY_NAME>
      <LONG_NAME>Mexico</LONG_NAME>
      <SOVEREIGN>Mexico</SOVEREIGN>
      <POP_CNTRY>92380850</POP_CNTRY>
      <CURR_TYPE>New Peso</CURR_TYPE>
      <CURR_CODE>MXP</CURR_CODE>
      <LANDLOCKED>N</LANDLOCKED>
      <SQKM>1953851.13</SQKM>
      <SQMI>754381.88</SQMI>
      <COLOR_MAP>3</COLOR_MAP>
    </S_country>
 

	<S_country>
      <name>China</name>
      <visibility>0</visibility>
      <description><![CDATA[<a href='http://www.google.com/search?q=China'>Search Google</a> <BR><a href='http://maps.google.com/?ll=36.5194488429949,103.888621950317&spn=0.02,0.02&t=h'>Maps Google</a> <BR>]]></description>
      <styleUrl>#khStyle548_1</styleUrl>
      <Style>
        <PolyStyle>
          <color>78ffe8be</color>
        </PolyStyle>
      </Style>
	  <Point>
        <coordinates>103.888621950317,36.5194488429949,0</coordinates>
      </Point>
      <MultiGeometry>
        <Polygon>
          <outerBoundaryIs>
            <LinearRing>
              <coordinates>
88.91692999999999,27.32083,0 88.76464,27.54243,0 88.83575,28.00805,0 88.62435000000001,28.1168,0 88.14279000000001,27.86605,0 87.19275,27.82305,0 86.69526999999999,28.11166,0 86.45137,27.90888,0 86.19769000000001,28.15805,0 86.0054,27.88625,0 85.72136999999999,28.27916000000001,0 85.11095,28.30666,0 85.19518000000001,28.59104,0 84.84665,28.54444,0 84.48623000000001,28.73402000000001,0 84.11651000000002,29.26097,0 83.5479,29.18902,0 83.19109,29.63166,0 82.17525000000001,30.06923,0 82.11123000000001,30.33444,0 81.42623,30.385,0 81.23221000000001,30.01194,0 81.02536000000001,30.20435,0 80.20699999999999,30.57552,0 80.25423000000001,30.73374,0 79.86304,30.96583,0 79.55429,30.95708,0 79.08082,31.43729,0 78.76825,31.30895,0 78.77075000000001,31.96847,0 78.47593999999999,32.24304,0 78.40595,32.5561,0 78.74623,32.63902,0 78.97110000000001,32.35083,0 79.52874,32.75666,0 79.37511000000001,33.09944,0 78.93623,33.42863000000001,0 78.81386999999999,33.52041,0 78.73581,34.06833,0 78.98535,34.35001,0 78.33707,34.6118,0 78.02305,35.28069,0 78.07180000000001,35.49902,0 77.82393,35.50133000000001,0 76.89525999999999,35.6125,0 76.55304,35.90665,0 76.18061,35.81458,0 75.92887,36.07082,0 76.04166000000001,36.23751,0 75.85984000000002,36.66343,0 75.45179,36.73169,0 75.39901999999999,36.91156,0 75.14787,36.99719000000001,0 74.56543000000001,37.02782,0 74.39089,37.17,0 74.91574,37.23733,0 75.18747999999999,37.40659,0 74.9036,37.65243,0 74.85442000000001,38.47256,0 74.35471,38.67438,0 73.81401,38.61271,0 73.70818,38.88653,0 73.85235000000002,38.97256,0 73.62005000000001,39.23569,0 73.65569000000001,39.45483,0 73.95471000000001,39.59965,0 73.8429,39.76896,0 73.99096,40.04202,0 74.88088999999999,40.32792,0 74.8588,40.51723,0 75.23394,40.45042,0 75.58284,40.64452,0 75.70374,40.298,0 76.3344,40.35324,0 76.87067,41.01258,0 78.08083000000001,41.04079,0 78.39554,41.39286,0 80.24513,42.03954,0 80.23402,42.19622,0 80.15804,42.63245000000001,0 80.25796000000001,42.81565,0 80.57226,42.88545,0 80.38405,43.02906,0 80.81526,43.1683,0 80.36887,44.11378,0 80.38499,44.63580000000001,0 80.51589,44.73408,0 79.87106,44.90282,0 81.67928000000001,45.34970000000001,0 81.94803,45.15748,0 82.56638,45.13303,0 82.64624000000001,45.43581,0 82.32179000000001,45.5831,0 83.03443,47.20061,0 83.93026000000002,46.97332,0 84.67804,46.99361,0 84.80318,46.8277,0 85.52257000000002,47.0591,0 85.70139,47.26221,0 85.53707,47.93721000000001,0 85.76596000000001,48.39333,0 86.59791,48.54277,0 86.87602,49.1102,0 87.34821,49.09262,0 87.8407,49.17295,0 87.89291,48.98304000000001,0 87.7611,48.88103,0 88.05942,48.73499,0 87.99194,48.56541000000001,0 88.51679000000002,48.40582,0 88.61179,48.21193,0 89.08514000000001,47.99374,0 90.07096,47.88791000000001,0 90.91360000000002,46.95221000000001,0 91.07026999999999,46.57735,0 90.92151000000001,46.29694000000001,0 91.02651,46.01735,0 90.68192999999999,45.57972000000001,0 90.89694000000002,45.25305,0 91.56088,45.07729,0 93.55470000000001,44.95721000000001,0 94.71735000000001,44.35499,0 95.41061000000001,44.29416,0 95.34108999999999,44.01937,0 95.53339,43.99311,0 95.87900999999999,43.28388000000001,0 96.38206,42.73499,0 97.16540000000001,42.79583,0 99.51012000000002,42.57194,0 100.8425,42.67707,0 101.8147,42.50972,0 102.0772,42.23333,0 103.4164,41.88721,0 104.5267,41.87721,0 104.5237,41.67068,0 105.0065,41.58666,0 107.4758,42.46624,0 109.3107,42.42999,0 110.1064,42.64576,0 110.9897,43.31694,0 111.9583,43.69221,0 111.4214,44.37527,0 111.873,45.04944,0 112.4272,45.08055000000001,0 112.853,44.8461,0 113.638,44.74527,0 114.5453,45.38943,0 115.7019,45.4586,0 116.2104,45.72193,0 116.5855,46.29583,0 117.3755,46.41888000000001,0 117.425,46.57069,0 117.8455,46.53645,0 118.3147,46.73638,0 119.7068,46.59895,0 119.9315,46.71513,0 119.9225,46.90221,0 119.125,47.66499,0 118.5393,47.99475,0 117.8046,48.01125,0 117.3827,47.65741,0 116.8747,47.88805000000001,0 116.2624,47.87819,0 115.9231,47.69186,0 115.5944,47.91749,0 115.5491,48.14353000000001,0 115.8358,48.25249000000001,0 115.8111,48.52055,0 116.7114,49.83047,0 117.8747,49.52058,0 118.5746,49.92263,0 119.321,50.09631,0 119.36,50.33028,0 119.1386,50.39027000000001,0 120.0641,51.62083000000001,0 120.7767,52.115,0 120.6259,52.34423,0 120.7122,52.54267,0 120.0819,52.58805,0 120.0314,52.76819,0 120.8307,53.26374000000001,0 123.6147,53.54361,0 124.4933,53.18832,0 125.62,53.05027,0 125.6573,52.87520000000001,0 126.0968,52.75722,0 125.9943,52.5761,0 126.555,52.12694,0 126.4412,51.99437,0 126.9139,51.38138,0 126.8176,51.26555,0 126.9689,51.31923,0 126.9331,51.05825,0 127.2919,50.74138,0 127.334,50.31472,0 127.5861,50.20856,0 127.515,49.80588,0 127.838,49.58665,0 128.7119,49.58443000000001,0 129.1118,49.34676000000001,0 129.4902,49.4158,0 130.2246,48.86464,0 130.674,48.86041,0 130.5236,48.60576,0 130.824,48.3268,0 130.6598,48.10839,0 130.9922,47.68721000000001,0 132.5211,47.71027000000001,0 133.0827,48.09888,0 133.4843,48.06888000000001,0 134.4153,48.39112,0 134.7408,48.26713,0 134.5576,47.99207000000001,0 134.7608,47.70027,0 134.1825,47.32333,0 133.9977,46.64017,0 133.8472,46.47888,0 133.9016,46.25363,0 133.4761,45.82347000000001,0 133.4702,45.62458,0 133.1491,45.45083000000001,0 133.0253,45.05694,0 131.8684,45.34582,0 131.4691,44.97388,0 130.953,44.83649,0 131.298,44.05193,0 131.1912,43.53624,0 131.3104,43.38958,0 131.1285,42.91645,0 130.4327,42.74485,0 130.6044,42.42186,0 130.2468,42.71416,0 130.2514,42.88794000000001,0 129.9046,43.00457,0 129.6955,42.43582,0 129.3493,42.44624,0 128.9269,42.02736,0 128.0566,42.00124,0 128.3002,41.58284,0 128.1529,41.38124,0 127.2708,41.47249000000001,0 126.9047,41.79222000000001,0 126.5661,41.61176,0 126.0118,40.89694,0 124.8851,40.47037,0 124.3736,40.09362,0 124.128,39.82777,0 123.2422,39.8143,0 123.2167,39.67388,0 121.648,38.99638,0 121.6982,38.8611,0 121.1873,38.71909,0 121.0887,38.91221,0 121.6794,39.09013,0 121.5994,39.2186,0 121.7511,39.35166,0 121.2283,39.52847,0 121.533,39.62322,0 121.4683,39.81138,0 121.881,40.00305,0 122.2987,40.50562,0 122.0521,40.73874,0 121.1775,40.92194,0 120.4468,40.1961,0 119.5264,39.87242,0 118.9715,39.15693,0 118.3273,39.04083,0 117.889,39.19846,0 117.5364,38.67555,0 117.6722,38.38666000000001,0 118.0281,38.16721,0 118.8378,38.1529,0 119.0355,37.87832,0 118.9566,37.30054,0 119.2328,37.14361,0 119.7672,37.15138,0 119.8529,37.35228,0 120.7371,37.83499,0 121.58,37.42458,0 122.1282,37.55256,0 122.1814,37.41833,0 122.5586,37.39624,0 122.5972,37.20999,0 122.4005,37.02583,0 122.5392,37.01978,0 122.5047,36.89361,0 122.1923,36.84298,0 121.9566,37.00027,0 121.5944,36.75889000000001,0 120.7764,36.61666,0 120.96,36.52638,0 120.8753,36.37582,0 120.7062,36.42277,0 120.6956,36.14075,0 120.3436,36.0419,0 120.3078,36.26345,0 120.0889,36.19998,0 120.2378,35.95943,0 119.6475,35.57893,0 119.1761,34.88499,0 120.2487,34.31145,0 120.8858,32.97499,0 120.8375,32.63889,0 121.3348,32.42958,0 121.4412,32.11333,0 121.7066,32.02166,0 121.8275,31.67833,0 120.9444,31.86639,0 120.6019,32.09361,0 120.099,31.94555,0 119.8267,32.30638,0 119.6317,32.26277,0 120.1364,31.90388,0 120.7026,31.98833000000001,0 120.7196,31.81944,0 121.6681,31.30889,0 121.8828,30.97986,0 121.8469,30.85305,0 120.9915,30.56889,0 120.8144,30.33555000000001,0 120.4586,30.39298000000001,0 120.15,30.19694,0 120.5082,30.31027,0 120.7916,30.06465,0 121.2808,30.30458000000001,0 121.6778,29.96305,0 122.1196,29.88211,0 121.4483,29.51167,0 121.9744,29.58916,0 121.9336,29.19527,0 121.8119,29.18388,0 121.7969,29.37236,0 121.7444,29.19729,0 121.5611,29.29111,0 121.4135,29.1634,0 121.6914,29.02194,0 121.4908,28.9359,0 121.6113,28.72798,0 121.1464,28.84215,0 121.4844,28.66993,0 121.6417,28.34722,0 121.3419,28.13889,0 121.1651,28.38277,0 120.9353,27.98222000000001,0 120.5908,28.07944,0 120.84,27.87229,0 120.5812,27.59319,0 120.6655,27.45083,0 120.5075,27.20777,0 120.1896,27.28278,0 120.4211,27.14764,0 120.0332,26.89805,0 120.128,26.64465,0 119.8603,26.51778,0 120.0733,26.78823,0 119.8668,26.64888,0 119.7879,26.79611,0 119.5503,26.75625,0 119.8204,26.44222,0 119.5775,26.47388000000001,0 119.658,26.33861,0 119.9489,26.36777,0 119.4253,25.99694,0 119.0975,26.14041,0 119.354,25.93788,0 119.7058,25.99069,0 119.5807,25.67996,0 119.4522,25.68222,0 119.6454,25.35333,0 119.3149,25.60649,0 119.1053,25.42097,0 119.3526,25.25319,0 119.2726,25.17208000000001,0 118.8749,25.2426,0 118.9866,24.97194,0 118.5729,24.88291,0 118.7631,24.75673,0 118.5953,24.52861,0 118.2397,24.53638,0 118.1688,24.68194,0 118.0199,24.44024,0 117.7947,24.46019,0 118.1237,24.25875,0 117.1957,23.62437,0 116.9179,23.65919,0 116.7603,23.355,0 116.5322,23.42024,0 116.7871,23.23666,0 116.5139,23.21083000000001,0 116.4817,22.93902,0 115.7978,22.73916,0 115.6403,22.88416,0 115.5367,22.65889,0 115.1614,22.80833,0 114.8889,22.70277,0 114.8722,22.53305,0 114.718,22.64027,0 114.7782,22.81402,0 114.5208,22.69972,0 114.6136,22.50423,0 114.2223,22.55004,0 114.3885,22.42993,0 114.2961,22.26056,0 113.9056,22.36736000000001,0 114.0337,22.50874,0 113.8608,22.47444,0 113.606,22.83458,0 113.5253,23.05027000000001,0 113.8219,23.11724,0 113.4793,23.05083,0 113.3629,22.87986,0 113.5648,22.54944,0 113.5527,22.18701,0 113.1687,22.56701,0 113.3868,22.17965,0 113.2226,22.04069,0 113.0848,22.20485,0 112.94,21.8693,0 112.824,21.96472,0 112.2819,21.70139,0 111.8921,21.91611,0 111.9669,21.75139,0 111.6762,21.77819,0 111.7832,21.61264,0 111.644,21.5268,0 111.0285,21.52528,0 110.5328,21.21138,0 110.3944,21.37322,0 110.1594,20.84381,0 110.3755,20.84083,0 110.3239,20.64,0 110.5274,20.48618,0 110.2789,20.24611,0 109.9244,20.2336,0 110.0069,20.4318,0 109.6629,20.92416,0 109.9411,21.44694,0 109.6605,21.50569,0 109.5733,21.72333,0 109.5344,21.49499,0 109.1428,21.39666,0 109.1375,21.58305,0 108.911,21.61611,0 108.8702,21.79889,0 108.7403,21.59888,0 108.4692,21.93562,0 108.5125,21.59014,0 108.3336,21.68999000000001,0 108.2447,21.51444,0 107.99,21.54241,0 107.7831,21.66694,0 107.3627,21.60526,0 106.6933,22.03083,0 106.5517,22.45682,0 106.7875,22.76389,0 106.7029,22.86694,0 105.8771,22.91253,0 105.3587,23.32416,0 104.9075,23.18027,0 104.7319,22.81805,0 104.3747,22.6875,0 104.1113,22.79812,0 103.9687,22.50387,0 103.6538,22.78287,0 103.5224,22.58436,0 103.3337,22.79451,0 103.0304,22.43652,0 102.4744,22.77187,0 102.1407,22.39629,0 101.7415,22.49777,0 101.5744,22.20916,0 101.7653,21.83444,0 101.786,21.14451,0 101.2919,21.17687,0 101.1482,21.57264,0 101.099,21.76903,0 100.6397,21.47694,0 100.2057,21.43546,0 99.97763000000001,21.72555,0 99.95741,22.05018,0 99.16785000000002,22.15592,0 99.56484,22.93659,0 99.51130000000001,23.08204,0 98.92747000000001,23.18916,0 98.67991000000002,23.97076,0 98.89073000000002,24.16007,0 97.54762,23.92999,0 97.7593,24.26055,0 97.54304999999999,24.47666,0 97.55255,24.73992,0 98.19109,25.61527,0 98.36136999999999,25.56944,0 98.71040000000001,25.85597,0 98.56944,26.12527,0 98.73109,26.18472,0 98.77777,26.79166,0 98.69699,27.52972000000001,0 98.45888000000001,27.6725,0 98.31992000000001,27.54014,0 98.14499000000001,28.14889000000001,0 97.55887,28.54652,0 97.34888000000001,28.22277,0 96.65387,28.46749,0 96.40192999999999,28.35111,0 96.34027,28.525,0 96.61373,28.79569,0 96.47083000000001,29.05666,0 96.17532,28.90138,0 96.14888000000002,29.05972,0 96.39172000000001,29.25757,0 96.08315,29.46444,0 95.38777,29.03527,0 94.64751,29.33346,0 94.23456000000002,29.07348,0 93.96172000000001,28.6692,0 93.35194000000001,28.61876000000001,0 93.22205000000001,28.3193,0 92.71044000000001,28.1419,0 92.54498,27.86194,0 91.65776,27.76472,0 91.66277,27.945,0 91.30138,28.08111,0 91.08693,27.96999,0 90.37649999999999,28.07958,0 90.38898000000002,28.24257,0 89.99818999999999,28.32369,0 89.48749000000001,28.05777,0 88.91692999999999,27.32083,0 
              </coordinates>
            </LinearRing>
          </outerBoundaryIs>
          <tesselate>1</tesselate>
        </Polygon>
        <Polygon>
          <outerBoundaryIs>
            <LinearRing>
              <coordinates>
121.4441,25.13474,0 121.5632,25.28361,0 122.0004,25.00722,0 121.8182,24.85028000000001,0 121.8397,24.47638,0 121.3556,23.0875,0 120.7196,21.92791,0 120.6103,22.31277,0 120.3071,22.54044,0 120.0539,23.04437,0 120.1112,23.61708,0 121.0017,25.00166,0 121.4441,25.13474,0 
              </coordinates>
            </LinearRing>
          </outerBoundaryIs>
          <tesselate>1</tesselate>
        </Polygon>
        <Polygon>
          <outerBoundaryIs>
            <LinearRing>
              <coordinates>
110.855,19.52888,0 110.4832,19.16761,0 110.5255,18.80083000000001,0 110.0503,18.3852,0 109.7594,18.39152,0 109.7036,18.19777,0 108.6871,18.50562,0 108.6283,19.28028,0 109.2939,19.76,0 109.1653,19.7236,0 109.2572,19.89972,0 109.4658,19.82861000000001,0 109.6108,19.99389,0 110.6655,20.13361,0 110.9425,19.97861,0 111.0215,19.63829,0 110.855,19.52888,0 
              </coordinates>
            </LinearRing>
          </outerBoundaryIs>
          <tesselate>1</tesselate>
        </Polygon>
        <Polygon>
          <outerBoundaryIs>
            <LinearRing>
              <coordinates>
121.2039,31.80054,0 121.8736,31.49972,0 121.5464,31.53111000000001,0 121.2039,31.80054,0 
              </coordinates>
            </LinearRing>
          </outerBoundaryIs>
          <tesselate>1</tesselate>
        </Polygon>
      </MultiGeometry>
      <FIPS_CNTRY>CH</FIPS_CNTRY>
      <GMI_CNTRY>CHN</GMI_CNTRY>
      <ISO_2DIGIT>CN</ISO_2DIGIT>
      <ISO_3DIGIT>CHN</ISO_3DIGIT>
      <CNTRY_NAME>China</CNTRY_NAME>
      <LONG_NAME>China</LONG_NAME>
      <SOVEREIGN>China</SOVEREIGN>
      <POP_CNTRY>1302862775</POP_CNTRY>
      <CURR_TYPE>Renminbi Yuan</CURR_TYPE>
      <CURR_CODE>CNY</CURR_CODE>
      <LANDLOCKED>N</LANDLOCKED>
      <SQKM>9402886.98</SQKM>
      <SQMI>3630454.7</SQMI>
      <COLOR_MAP>2</COLOR_MAP>
    </S_country>
	 <S_country>
      <name>Egypt</name>
      <visibility>0</visibility>
      <description><![CDATA[<a href='http://www.google.com/search?q=Egypt'>Search Google</a> <BR><a href='http://maps.google.com/?ll=26.5038669343057,29.8669561966177&spn=0.02,0.02&t=h'>Maps Google</a> <BR>]]></description>
      <styleUrl>#khStyle548_0</styleUrl>
      <Style>
        <PolyStyle>
          <color>78beffd3</color>
        </PolyStyle>
      </Style>
	  <Point>
        <coordinates>29.8669561966177,26.50386693430571,0</coordinates>
      </Point>
	  <MultiGeometry>
      <Polygon>
        <outerBoundaryIs>
          <LinearRing>
            <coordinates>
34.21666,31.32333,0 34.26758,31.21654,0 34.9038,29.48671,0 34.25444,27.72861,0 33.24277,28.55444,0 33.17256,28.99507,0 32.74139,29.45472,0 32.57562,30.00271,0 32.34083,29.59486,0 32.59638,29.34055,0 32.68861,28.86777,0 33.55888,27.88305,0 33.49472,27.64389,0 33.83736,27.23666,0 33.93833,26.65528,0 35.13861,24.5175,0 35.81118,23.90701,0 35.48583,23.94291000000001,0 35.66889,22.97069000000001,0 36.88847,22.00011,0 31.46028,21.99819,0 31.44833,22.23222,0 31.2743,21.99875,0 25.00142,21.99969,0 24.99778,29.24889,0 24.70680000000001,30.15916,0 25.0175,30.78923,0 24.86812,31.37083000000001,0 25.15166,31.64694,0 25.31444,31.50146,0 25.94722,31.61777,0 27.32319,31.37611,0 27.43889,31.22277,0 27.84416,31.24375,0 27.92139,31.09805,0 28.42972,31.07889000000001,0 29.06944,30.82166000000001,0 30.06444,31.32027,0 30.28972,31.23736,0 30.35545000000001,31.50284,0 30.95611,31.57569,0 30.54417,31.39319,0 30.9025,31.42028000000001,0 31.12646,31.49666,0 31.01222,31.59701,0 31.55694,31.44222,0 31.89402,31.53914,0 31.92104,31.5316,0 32.0499,31.37886,0 32.20249,31.29093,0 32.0631,31.35812,0 31.99207,31.40149,0 31.90965,31.52752,0 31.8607,31.51526,0 31.77746,31.27739,0 32.14307000000001,31.07417,0 32.27979,31.12430000000001,0 32.21475,31.28243,0 32.7118,31.03354,0 34.21666,31.32333,0 
            </coordinates>
          </LinearRing>
        </outerBoundaryIs>
        <tesselate>1</tesselate>
      </Polygon>
	  </MultiGeometry>
      <FIPS_CNTRY>EG</FIPS_CNTRY>
      <GMI_CNTRY>EGY</GMI_CNTRY>
      <ISO_2DIGIT>EG</ISO_2DIGIT>
      <ISO_3DIGIT>EGY</ISO_3DIGIT>
      <CNTRY_NAME>Egypt</CNTRY_NAME>
      <LONG_NAME>Egypt</LONG_NAME>
      <SOVEREIGN>Egypt</SOVEREIGN>
      <POP_CNTRY>56133430</POP_CNTRY>
      <CURR_TYPE>Pound</CURR_TYPE>
      <CURR_CODE>EGP</CURR_CODE>
      <LANDLOCKED>N</LANDLOCKED>
      <SQKM>1000941.5</SQKM>
      <SQMI>386463.72</SQMI>
      <COLOR_MAP>1</COLOR_MAP>
    </S_country>
	 <S_country>
      <name>Italy</name>
      <visibility>0</visibility>
      <description><![CDATA[<a href='http://www.google.com/search?q=Italy'>Search Google</a> <BR><a href='http://maps.google.com/?ll=42.7834364003461,12.1077707573635&spn=0.02,0.02&t=h'>Maps Google</a> <BR>]]></description>
      <styleUrl>#khStyle548_3</styleUrl>
      <Style>
        <PolyStyle>
          <color>78b0f1ae</color>
        </PolyStyle>
      </Style>
	  <Point>
        <coordinates>12.1077707573635,42.7834364003461,0</coordinates>
      </Point>
      <MultiGeometry>
        <Polygon>
          <outerBoundaryIs>
            <LinearRing>
              <coordinates>
8.178333,40.63638,0 8.228054,40.93840000000001,0 8.579720999999999,40.84,0 9.233055,41.25471,0 9.562498,41.11777,0 9.633888000000001,40.98917,0 9.510450000000001,40.92038,0 9.824165000000001,40.52722,0 9.623332,40.25187,0 9.713609999999999,40.04055,0 9.565068,39.14562,0 9.013540000000001,39.26319,0 8.902082,38.90263,0 8.646387000000001,38.89027,0 8.505381,39.06103,0 8.408332,38.95854,0 8.371528,39.37291,0 8.557219999999999,39.84499,0 8.395970999999999,39.90131,0 8.457222,40.32139,0 8.178333,40.63638,0 
              </coordinates>
            </LinearRing>
          </outerBoundaryIs>
          <tesselate>1</tesselate>
        </Polygon>
        <Polygon>
          <outerBoundaryIs>
            <LinearRing>
              <coordinates>
15.21972,37.76444,0 15.09271,37.34832,0 15.31667,37.00889,0 15.08139,36.64916,0 13.15597,37.49125,0 12.65611,37.55978,0 12.4308,37.80326,0 12.73361,38.13972,0 12.92361,38.02486,0 13.31861,38.21749,0 13.79111,37.97222000000001,0 15.54583,38.29694,0 15.64794,38.26458,0 15.21972,37.76444,0 
              </coordinates>
            </LinearRing>
          </outerBoundaryIs>
          <tesselate>1</tesselate>
        </Polygon>
        <Polygon>
          <outerBoundaryIs>
            <LinearRing>
              <coordinates>
7.531935000000001,43.78204,0 7.662222,44.17083,0 6.976388,44.28416,0 6.852777000000001,44.54083000000001,0 7.031666000000001,44.83138,0 6.623967000000001,45.11572,0 7.127777,45.2593,0 7.146944,45.43055,0 6.799346,45.78867000000001,0 7.038054,45.93194,0 7.855742000000001,45.91905,0 8.441457,46.46208,0 8.444998999999999,46.24722000000001,0 9.036664999999999,45.83778000000001,0 9.293783,46.50083000000001,0 9.544860999999999,46.30624000000001,0 9.946942999999999,46.37958,0 10.13639,46.23069,0 10.05139,46.54152000000001,0 10.45753,46.5425,0 10.47124,46.87135,0 11.0168,46.77333,0 11.17715,46.96736,0 12.18611,47.09458000000001,0 12.16028,46.92805,0 12.44055,46.69083,0 13.71865,46.52661,0 13.38347,46.29514,0 13.66604,46.17531,0 13.47972,46.01222,0 13.91833,45.63639000000001,0 13.71694,45.59611,0 13.63,45.77000000000001,0 13.19333,45.77805,0 13.08778,45.63652,0 12.28708,45.47333,0 12.16111,45.26389,0 12.53805,44.96062000000001,0 12.24764,44.72388,0 12.36833,44.24667,0 13.59944,43.57000000000001,0 14.01667,42.67,0 14.73653,42.08791,0 15.16236,41.92444,0 16.14555,41.91117,0 16.19278,41.78999,0 15.89764,41.61333,0 15.985,41.43972,0 18.01264,40.64305,0 18.5125,40.13472,0 18.34944,39.79194,0 18.04076,39.93771,0 17.85722,40.28444,0 17.39278,40.33055,0 17.20382,40.41249,0 17.31701,40.48829,0 16.9193,40.45055,0 16.49055,39.74916,0 17.14555,39.39639,0 17.16917,38.96333,0 16.595,38.80083,0 16.56917,38.42833,0 16.05729,37.92423,0 15.63514,38.00458,0 15.62958,38.2293,0 15.90611,38.47277,0 15.82903,38.62798,0 16.22111,38.86861,0 15.66375,40.03305,0 15.35486,40.0009,0 14.94194,40.23416,0 14.83076,40.63152,0 14.40194,40.6,0 14.45278,40.74791,0 14.07389,40.82194,0 13.71222,41.25111,0 13.02958,41.26014,0 11.62771,42.29826,0 11.09743,42.39652000000001,0 11.15805,42.55499,0 10.58889,42.9575,0 10.1118,44.00375,0 8.747221,44.42805,0 7.772778000000001,43.81528,0 7.531935000000001,43.78204,0 
              </coordinates>
            </LinearRing>
          </outerBoundaryIs>
          <innerBoundaryIs>
            <LinearRing>
              <coordinates>
12.45167,41.90797,0 12.44483,41.90303,0 12.45662,41.90151,0 12.45167,41.90797,0 
              </coordinates>
            </LinearRing>
            <LinearRing>
              <coordinates>
12.5033,43.98532,0 12.407,43.95475,0 12.46968,43.89819,0 12.5033,43.98532,0 
              </coordinates>
            </LinearRing>
          </innerBoundaryIs>
          <tesselate>1</tesselate>
        </Polygon>
      </MultiGeometry>
      <FIPS_CNTRY>IT</FIPS_CNTRY>
      <GMI_CNTRY>ITA</GMI_CNTRY>
      <ISO_2DIGIT>IT</ISO_2DIGIT>
      <ISO_3DIGIT>ITA</ISO_3DIGIT>
      <CNTRY_NAME>Italy</CNTRY_NAME>
      <LONG_NAME>Italy</LONG_NAME>
      <SOVEREIGN>Italy</SOVEREIGN>
      <POP_CNTRY>57908880</POP_CNTRY>
      <CURR_TYPE>Euro</CURR_TYPE>
      <CURR_CODE>EUR</CURR_CODE>
      <LANDLOCKED>N</LANDLOCKED>
      <SQKM>301101.38</SQKM>
      <SQMI>116255.25</SQMI>
      <COLOR_MAP>4</COLOR_MAP>
    </S_country>
	</Folder>
	</Document>
</kml>
